%YAML 1.1
%TAG !u! tag:unity3d.com,2011:
--- !u!1045 &1
EditorBuildSettings:
  m_ObjectHideFlags: 0
  serializedVersion: 2
  m_Scenes:
  - enabled: 1
    path: Assets/Scenes/LogoScreen.unity
    guid: 0324b5305f3dad6469b16e68324aa786
  - enabled: 1
    path: Assets/Scenes/TitleScreen.unity
    guid: 2bb891dc88944b34b8280168896a2453
  - enabled: 1
    path: Assets/Scenes/Credits.unity
    guid: 21d3e3070a15edd4484477a419906f46
  - enabled: 1
    path: Assets/Scenes/GameEasy.unity
    guid: 7211d4b425368134daed813dcb794cb2
  - enabled: 1
    path: Assets/Scenes/GameHard.unity
    guid: 05bf7d9cec3040743bd9a69101a8f0e3
  - enabled: 1
    path: Assets/Scenes/Options.unity
    guid: 511018898e4e4a64186ca76908bca795
  - enabled: 1
    path: Assets/Scenes/OptionsEasy.unity
    guid: 4b077044dc07a2348bc135480f0a4cb0
  - enabled: 1
    path: Assets/Scenes/OptionsHard.unity
    guid: ad53fee1a043c8c4aaa953c81ae564aa
  - enabled: 1
    path: Assets/Scenes/GameOver.unity
    guid: 945267d986d55444493e18d49e1fdea2
  - enabled: 1
    path: Assets/Scenes/GameOverHard.unity
    guid: a32766176683eba4d9a043affc6024c6
  m_configObjects: {}
